2003.09.23 19:51 B c:\program files\Apache Tomcat 4.0\webapps\ROOT\winstaff\supportBase\images\top-nav2_r1_c8_f2.gif --> pro-file2.winstaff.com /D:/web/ROOT/winstaff/supportBase/images/ top-nav2_r1_c8_f2.gif
2003.09.23 19:51 B c:\program files\Apache Tomcat 4.0\webapps\ROOT\winstaff\supportBase\images\top-nav2_r1_c8.gif --> pro-file2.winstaff.com /D:/web/ROOT/winstaff/supportBase/images/ top-nav2_r1_c8.gif
2003.09.23 19:51 B c:\program files\Apache Tomcat 4.0\webapps\ROOT\winstaff\supportBase\images\top-nav2_r1_c7.gif --> pro-file2.winstaff.com /D:/web/ROOT/winstaff/supportBase/images/ top-nav2_r1_c7.gif
2003.09.23 19:51 B c:\program files\Apache Tomcat 4.0\webapps\ROOT\winstaff\supportBase\images\top-nav2_r1_c6_f2.gif --> pro-file2.winstaff.com /D:/web/ROOT/winstaff/supportBase/images/ top-nav2_r1_c6_f2.gif
2003.09.23 19:51 B c:\program files\Apache Tomcat 4.0\webapps\ROOT\winstaff\supportBase\images\top-nav2_r1_c6.gif --> pro-file2.winstaff.com /D:/web/ROOT/winstaff/supportBase/images/ top-nav2_r1_c6.gif
2003.09.23 19:51 B c:\program files\Apache Tomcat 4.0\webapps\ROOT\winstaff\supportBase\images\top-nav2_r1_c5.gif --> pro-file2.winstaff.com /D:/web/ROOT/winstaff/supportBase/images/ top-nav2_r1_c5.gif
2003.09.23 19:51 B c:\program files\Apache Tomcat 4.0\webapps\ROOT\winstaff\supportBase\images\top-nav2_r1_c4_f2.gif --> pro-file2.winstaff.com /D:/web/ROOT/winstaff/supportBase/images/ top-nav2_r1_c4_f2.gif
2003.09.23 19:51 B c:\program files\Apache Tomcat 4.0\webapps\ROOT\winstaff\supportBase\images\top-nav2_r1_c4.gif --> pro-file2.winstaff.com /D:/web/ROOT/winstaff/supportBase/images/ top-nav2_r1_c4.gif
2003.09.23 19:51 B c:\program files\Apache Tomcat 4.0\webapps\ROOT\winstaff\supportBase\images\top-nav2_r1_c3.gif --> pro-file2.winstaff.com /D:/web/ROOT/winstaff/supportBase/images/ top-nav2_r1_c3.gif
2003.09.23 19:51 B c:\program files\Apache Tomcat 4.0\webapps\ROOT\winstaff\supportBase\images\top-nav2_r1_c2_f2.gif --> pro-file2.winstaff.com /D:/web/ROOT/winstaff/supportBase/images/ top-nav2_r1_c2_f2.gif
2003.09.23 19:51 B c:\program files\Apache Tomcat 4.0\webapps\ROOT\winstaff\supportBase\images\top-nav2_r1_c2.gif --> pro-file2.winstaff.com /D:/web/ROOT/winstaff/supportBase/images/ top-nav2_r1_c2.gif
2003.09.23 19:51 B c:\program files\Apache Tomcat 4.0\webapps\ROOT\winstaff\supportBase\images\top-nav2_r1_c1.gif --> pro-file2.winstaff.com /D:/web/ROOT/winstaff/supportBase/images/ top-nav2_r1_c1.gif
2003.09.23 19:51 B c:\program files\Apache Tomcat 4.0\webapps\ROOT\winstaff\supportBase\images\spacer.gif --> pro-file2.winstaff.com /D:/web/ROOT/winstaff/supportBase/images/ spacer.gif
2003.09.23 19:51 B c:\program files\Apache Tomcat 4.0\webapps\ROOT\winstaff\supportBase\images\icon_reload.gif --> pro-file2.winstaff.com /D:/web/ROOT/winstaff/supportBase/images/ icon_reload.gif
2003.09.23 19:51 B c:\program files\Apache Tomcat 4.0\webapps\ROOT\winstaff\supportBase\images\icon_signOff.gif --> pro-file2.winstaff.com /D:/web/ROOT/winstaff/supportBase/images/ icon_signOff.gif
2003.09.23 19:51 B c:\program files\Apache Tomcat 4.0\webapps\ROOT\winstaff\supportBase\images\title.gif --> pro-file2.winstaff.com /D:/web/ROOT/winstaff/supportBase/images/ title.gif
2003.09.23 19:51 B c:\program files\Apache Tomcat 4.0\webapps\ROOT\winstaff\supportBase\images\nav4Arrow_r7_c3_f2.gif --> pro-file2.winstaff.com /D:/web/ROOT/winstaff/supportBase/images/ nav4Arrow_r7_c3_f2.gif
2003.09.23 19:51 B c:\program files\Apache Tomcat 4.0\webapps\ROOT\winstaff\supportBase\images\nav4Arrow_r7_c3.gif --> pro-file2.winstaff.com /D:/web/ROOT/winstaff/supportBase/images/ nav4Arrow_r7_c3.gif
2003.09.23 19:51 B c:\program files\Apache Tomcat 4.0\webapps\ROOT\winstaff\supportBase\images\nav4Arrow_r6_c7.gif --> pro-file2.winstaff.com /D:/web/ROOT/winstaff/supportBase/images/ nav4Arrow_r6_c7.gif
2003.09.23 19:51 B c:\program files\Apache Tomcat 4.0\webapps\ROOT\winstaff\supportBase\images\nav4Arrow_r6_c1.gif --> pro-file2.winstaff.com /D:/web/ROOT/winstaff/supportBase/images/ nav4Arrow_r6_c1.gif
2003.09.23 19:51 B c:\program files\Apache Tomcat 4.0\webapps\ROOT\winstaff\supportBase\images\nav4Arrow_r5_c4.gif --> pro-file2.winstaff.com /D:/web/ROOT/winstaff/supportBase/images/ nav4Arrow_r5_c4.gif
2003.09.23 19:51 B c:\program files\Apache Tomcat 4.0\webapps\ROOT\winstaff\supportBase\images\nav4Arrow_r4_c5.gif --> pro-file2.winstaff.com /D:/web/ROOT/winstaff/supportBase/images/ nav4Arrow_r4_c5.gif
2003.09.23 19:51 B c:\program files\Apache Tomcat 4.0\webapps\ROOT\winstaff\supportBase\images\nav4Arrow_r4_c4_f2.gif --> pro-file2.winstaff.com /D:/web/ROOT/winstaff/supportBase/images/ nav4Arrow_r4_c4_f2.gif
2003.09.23 19:51 B c:\program files\Apache Tomcat 4.0\webapps\ROOT\winstaff\supportBase\images\nav4Arrow_r4_c4.gif --> pro-file2.winstaff.com /D:/web/ROOT/winstaff/supportBase/images/ nav4Arrow_r4_c4.gif
2003.09.23 19:51 B c:\program files\Apache Tomcat 4.0\webapps\ROOT\winstaff\supportBase\images\nav4Arrow_r4_c3.gif --> pro-file2.winstaff.com /D:/web/ROOT/winstaff/supportBase/images/ nav4Arrow_r4_c3.gif
2003.09.23 19:51 B c:\program files\Apache Tomcat 4.0\webapps\ROOT\winstaff\supportBase\images\nav4Arrow_r3_c7_f2.gif --> pro-file2.winstaff.com /D:/web/ROOT/winstaff/supportBase/images/ nav4Arrow_r3_c7_f2.gif
2003.09.23 19:51 B c:\program files\Apache Tomcat 4.0\webapps\ROOT\winstaff\supportBase\images\nav4Arrow_r3_c7.gif --> pro-file2.winstaff.com /D:/web/ROOT/winstaff/supportBase/images/ nav4Arrow_r3_c7.gif
2003.09.23 19:51 B c:\program files\Apache Tomcat 4.0\webapps\ROOT\winstaff\supportBase\images\nav4Arrow_r3_c6.gif --> pro-file2.winstaff.com /D:/web/ROOT/winstaff/supportBase/images/ nav4Arrow_r3_c6.gif
2003.09.23 19:51 B c:\program files\Apache Tomcat 4.0\webapps\ROOT\winstaff\supportBase\images\nav4Arrow_r3_c2.gif --> pro-file2.winstaff.com /D:/web/ROOT/winstaff/supportBase/images/ nav4Arrow_r3_c2.gif
2003.09.23 19:51 B c:\program files\Apache Tomcat 4.0\webapps\ROOT\winstaff\supportBase\images\nav4Arrow_r3_c1_f2.gif --> pro-file2.winstaff.com /D:/web/ROOT/winstaff/supportBase/images/ nav4Arrow_r3_c1_f2.gif
2003.09.23 19:51 B c:\program files\Apache Tomcat 4.0\webapps\ROOT\winstaff\supportBase\images\nav4Arrow_r3_c1.gif --> pro-file2.winstaff.com /D:/web/ROOT/winstaff/supportBase/images/ nav4Arrow_r3_c1.gif
2003.09.23 19:51 B c:\program files\Apache Tomcat 4.0\webapps\ROOT\winstaff\supportBase\images\nav4Arrow_r2_c3.gif --> pro-file2.winstaff.com /D:/web/ROOT/winstaff/supportBase/images/ nav4Arrow_r2_c3.gif
2003.09.23 19:51 B c:\program files\Apache Tomcat 4.0\webapps\ROOT\winstaff\supportBase\images\nav4Arrow_r1_c6.gif --> pro-file2.winstaff.com /D:/web/ROOT/winstaff/supportBase/images/ nav4Arrow_r1_c6.gif
2003.09.23 19:51 B c:\program files\Apache Tomcat 4.0\webapps\ROOT\winstaff\supportBase\images\nav4Arrow_r1_c3_f2.gif --> pro-file2.winstaff.com /D:/web/ROOT/winstaff/supportBase/images/ nav4Arrow_r1_c3_f2.gif
2003.09.23 19:51 B c:\program files\Apache Tomcat 4.0\webapps\ROOT\winstaff\supportBase\images\nav4Arrow_r1_c3.gif --> pro-file2.winstaff.com /D:/web/ROOT/winstaff/supportBase/images/ nav4Arrow_r1_c3.gif
2003.09.23 19:51 B c:\program files\Apache Tomcat 4.0\webapps\ROOT\winstaff\supportBase\images\nav4Arrow_r1_c1.gif --> pro-file2.winstaff.com /D:/web/ROOT/winstaff/supportBase/images/ nav4Arrow_r1_c1.gif
